{
  "profiles": {
    "CANopen2CalibratorGUIAdapter": {
      "commandName": "Project",
      "commandLineArgs": "--can-driver=localhost:4312 --web-port 1771",
      "launchBrowser": true,
      "environmentVariables": {
        "ASPNETCORE_ENVIRONMENT": "Development",
        "ASPNETCORE_HOSTINGSTARTUPASSEMBLIES": "Microsoft.AspNetCore.Mvc.Razor.RuntimeCompilation"
      },
      "nativeDebugging": true,
      "applicationUrl": "http://localhost:1771"
    }
  },
  "iisSettings": {
    "windowsAuthentication": false,
    "anonymousAuthentication": true,
    "iisExpress": {
      "applicationUrl": "http://localhost:50872",
      "sslPort": 0
    }
  }
}